s1(15Oct2023:13:43:04):  xrun -compile -l xrun_compile.log -F ../tb/tb.f -v93 +nowarnDSEM2009 +nowarnDSEMEL +nowarnCGDEFN +nowarnCOVUTA +nowarnBADPRF +nowarnXCLGNOPTM +nowarnRNDXCELON +nowarnSAWSTP -xmlibdirname INCA_libs_gui +access+r +gui +overwrite -nocopyright -coverage all -covoverwrite -covfile xrun_covfile.txt 
s2(15Oct2023:13:43:05):  xrun -elaborate -l xrun_elaborate.log -F ../tb/tb.f -v93 +nowarnDSEM2009 +nowarnDSEMEL +nowarnCGDEFN +nowarnCOVUTA +nowarnBADPRF +nowarnXCLGNOPTM +nowarnRNDXCELON +nowarnSAWSTP -xmlibdirname INCA_libs_gui +access+r +gui +overwrite -nocopyright -coverage all -covoverwrite -covfile xrun_covfile.txt 
s3(15Oct2023:13:43:05):  xrun -F ../tb/tb.f -v93 +nowarnDSEM2009 +nowarnDSEMEL +nowarnCGDEFN +nowarnCOVUTA +nowarnBADPRF +nowarnXCLGNOPTM +nowarnRNDXCELON +nowarnSAWSTP -xmlibdirname INCA_libs_gui +access+r +gui +overwrite -nocopyright -coverage all -covoverwrite -covfile xrun_covfile.txt +UVM_TESTNAME=lab01_example -l xrun_gui.log 
